…
``` r
library(oxcgrt)
library(magrittr)

get_json_time(from = "2020-06-01") %>% get_data_time()
```

This produces the following output:

    #> # A tibble: 27,810 x 8
    #>    date_value country_code confirmed deaths stringency_actu… stringency
    #>    <date>     <chr>            <int>  <int>            <dbl>      <dbl>
    #>  1 2020-06-01 SGP              34884     23             81.5       81.5
    #>  2 2020-06-01 SLB                 NA     NA             33.3       33.3
    #>  3 2020-06-01 SLE                861     46             73.2       73.2
    #>  4 2020-06-01 SLV               2517     46            100        100  
    #>  5 2020-06-01 SMR                671     42             57.4       57.4
    #>  6 2020-06-01 SOM               1976     78             48.2       48.2
    #>  7 2020-06-01 SRB              11412    243             43.5       43.5
    #>  8 2020-06-01 SSD                994     10             85.2       85.2
    #>  9 2020-06-01 SUR                 23      1             77.8       77.8
    #> 10 2020-06-01 SVK               1522     28             69.4       69.4
    #> # … with 27,800 more rows, and 2 more variables: stringency_legacy <dbl>,
    #> #   stringency_legacy_disp <dbl>
…
``` r
get_json_time() %>% get_data_time()
```

which produces the following output:

    #> # A tibble: 55,745 x 8
    #>    date_value country_code stringency_actu… stringency stringency_lega…
    #>    <date>     <chr>                   <dbl>      <dbl>            <dbl>
    #>  1 2020-01-02 ABW                         0          0                0
    #>  2 2020-01-02 AFG                         0          0                0
    #>  3 2020-01-02 AGO                         0          0                0
    #>  4 2020-01-02 ALB                         0          0                0
    #>  5 2020-01-02 AND                         0          0                0
    #>  6 2020-01-02 ARE                         0          0                0
    #>  7 2020-01-02 ARG                         0          0                0
    #>  8 2020-01-02 AUS                         0          0                0
    #>  9 2020-01-02 AUT                         0          0                0
    #> 10 2020-01-02 AZE                         0          0                0
    #> # … with 55,735 more rows, and 3 more variables: stringency_legacy_disp <dbl>,
    #> #   confirmed <int>, deaths <int>
…
