An Interface to the Oxford COVID-19 Government Response Tracker API • oxcgrt
…
For each of these endpoints, the data retrieval workflow is composed of two steps: first is the creation of the appropriate API URL query; and, second is the retrieval of the appropriate data as per query into a data.frame structure usable in R. This workflow is show in code below:

## Load oxcgrt package
library(oxcgrt)

## Step 1: Create the appropriate API URL query for time series data from 
## 1 June 2020 up to current day
query <- get_json_time(from = "2020-06-01")

## Step 2: Retrieve the data
get_data_time(query)

This results in the following:

#> # A tibble: 30,638 x 9
#>    date_value country_code country_name confirmed deaths stringency_actu…
#>    <date>     <chr>        <chr>            <int>  <int>            <dbl>
#>  1 2020-06-01 ABW          Aruba              101      3             50  
#>  2 2020-06-01 AFG          Afghanistan      15205    257             84.3
#>  3 2020-06-01 AGO          Angola              86      4             77.8
#>  4 2020-06-01 ALB          Albania           1137     33             71.3
#>  5 2020-06-01 AND          Andorra            764     51             50  
#>  6 2020-06-01 ARE          United Arab…     34557    264             72.2
#>  7 2020-06-01 ARG          Argentina        16838    539             90.7
#>  8 2020-06-01 AUS          Australia         7195    102             62.0
#>  9 2020-06-01 AUT          Austria          16642    668             53.7
#> 10 2020-06-01 AZE          Azerbaijan        5494     63             77.8
#> # … with 30,628 more rows, and 3 more variables: stringency <dbl>,
#> #   stringency_legacy <dbl>, stringency_legacy_disp <dbl>

The oxcgrt functions are designed to work with pipe operators via the magrittr package. The steps shown above can be replicated using pipe operators as follows:

## Load magrittr package
library(magrittr)

get_json_time(from = "2020-06-01") %>%    ## Step 1: Creat API URL query
  get_data_time()                         ## Step 2: Retrieve data

This results in the same output as the earlier workflow albeit sorted alphabetically by country code:

#> # A tibble: 30,638 x 9
#>    date_value country_code country_name confirmed deaths stringency_actu…
#>    <date>     <chr>        <chr>            <int>  <int>            <dbl>
#>  1 2020-06-01 ABW          Aruba              101      3             50  
#>  2 2020-06-01 AFG          Afghanistan      15205    257             84.3
#>  3 2020-06-01 AGO          Angola              86      4             77.8
#>  4 2020-06-01 ALB          Albania           1137     33             71.3
#>  5 2020-06-01 AND          Andorra            764     51             50  
#>  6 2020-06-01 ARE          United Arab…     34557    264             72.2
#>  7 2020-06-01 ARG          Argentina        16838    539             90.7
#>  8 2020-06-01 AUS          Australia         7195    102             62.0
#>  9 2020-06-01 AUT          Austria          16642    668             53.7
#> 10 2020-06-01 AZE          Azerbaijan        5494     63             77.8
#> # … with 30,628 more rows, and 3 more variables: stringency <dbl>,
#> #   stringency_legacy <dbl>, stringency_legacy_disp <dbl>
…
For more detailed examples of how to calculate the various OxCGRT sub-indices and indices, read Calculate OxCGRT sub-indices and indices.

Datasets

The oxcgrt package comes with helpful datasets which serve as guides to facilitate in usage and interpretation of the OxCGRT data.

Codebook

The OxCGRT provides an authoritative codebook found here. The oxcgrt package has extracted the tables from this documentation into a single codebook that can serve as a handy and convenient reference for an R user when working with OxCGRT data in R. The OxCGRT codebook can be accessed as follows:

codebook

which outputs the codebook as a singular table in tbl format as shown below:

#> # A tibble: 29 x 6
#>    ID    Name     Description      Measurement   Coding         `Policy Group`  
#>    <chr> <chr>    <chr>            <chr>         <chr>          <chr>           
#>  1 C1    C1_Scho… "Record closing… Ordinal scale 0 - no measur… Containment and…
#>  2 C1    C1_Flag  ""               Binary flag … 0 - targeted;… Containment and…
#>  3 C2    C2_Work… "Record closing… Ordinal scale 0 - no measur… Containment and…
#>  4 C2    C2_Flag  ""               Binary flag … 0 - targeted;… Containment and…
#>  5 C3    C3_Canc… "Record cancell… Ordinal scale 0 - no measur… Containment and…
#>  6 C3    C3_Flag  ""               Binary flag … 0 - targeted;… Containment and…
#>  7 C4    C4_Rest… "Record limits … Ordinal scale 0 - no restri… Containment and…
#>  8 C4    C4_Flag  ""               Binary flag … 0 - targeted;… Containment and…
#>  9 C5    C5_Clos… "Record closing… Ordinal scale 0 - no measur… Containment and…
#> 10 C5    C5_Flag  ""               Binary flag … 0 - targeted;… Containment and…
#> # … with 19 more rows
…
