Retrieve data via OxCGRT API • oxcgrt
…
Stringency index by country over time

The first API endpoint provides JSON for all countries included in the OxCGRT over a specified period of time:

https://covidtrackerapi.bsg.ox.ac.uk/api/v2/stringency/date-range/{start-date}/{end-date}

where start-date and end-date are the starting date and ending date (both in YYYY-MM-DD format) respectively from which to retrieve data.

The oxcgrt package provides a function named get_json_time to interface with the API and retrieve the specified JSON and a function named get_data_time to extract the data from the specified JSON into an R tibble object. These two functions have been designed such that they can be piped from one to the other. Hence to retrieve stringency index data for all countries from 1 June 2020 to current date, the following code can be used:

get_json_time(from = "2020-06-01") %>% get_data_time()

This produces the following output:

#> # A tibble: 30,646 x 9
#>    date_value country_code country_name confirmed deaths stringency_actu…
#>    <date>     <chr>        <chr>            <int>  <int>            <dbl>
#>  1 2020-06-01 ABW          Aruba              101      3             50  
#>  2 2020-06-01 AFG          Afghanistan      15205    257             84.3
#>  3 2020-06-01 AGO          Angola              86      4             77.8
#>  4 2020-06-01 ALB          Albania           1137     33             71.3
#>  5 2020-06-01 AND          Andorra            764     51             50  
#>  6 2020-06-01 ARE          United Arab…     34557    264             72.2
#>  7 2020-06-01 ARG          Argentina        16838    539             90.7
#>  8 2020-06-01 AUS          Australia         7195    102             62.0
#>  9 2020-06-01 AUT          Austria          16642    668             53.7
#> 10 2020-06-01 AZE          Azerbaijan        5494     63             77.8
#> # … with 30,636 more rows, and 3 more variables: stringency <dbl>,
#> #   stringency_legacy <dbl>, stringency_legacy_disp <dbl>

Important to note that in get_json_time, only the starting date (using the from argument) is specified to the desired 1 June 2020 in YYYY-MM-DD format. This is because by default the to argument (for the ending date) is set to the current date using a call to the Sys.Date() function. By default, the from argument is set to 2 January 2020 (2020-01-02) which is the earliest available data point for the stringency index. Therefore, to retrieve data on stringency index for all countries for all available time points up to current, the following commands can be issued:

get_json_time() %>% get_data_time()

which produces the following output:

#> # A tibble: 57,481 x 9
#>    date_value country_code country_name stringency_actu… stringency
#>    <date>     <chr>        <chr>                   <dbl>      <dbl>
#>  1 2020-01-02 ABW          Aruba                       0          0
#>  2 2020-01-02 AFG          Afghanistan                 0          0
#>  3 2020-01-02 AGO          Angola                      0          0
#>  4 2020-01-02 ALB          Albania                     0          0
#>  5 2020-01-02 AND          Andorra                     0          0
#>  6 2020-01-02 ARE          United Arab…                0          0
#>  7 2020-01-02 ARG          Argentina                   0          0
#>  8 2020-01-02 AUS          Australia                   0          0
#>  9 2020-01-02 AUT          Austria                     0          0
#> 10 2020-01-02 AZE          Azerbaijan                  0          0
#> # … with 57,471 more rows, and 4 more variables: stringency_legacy <dbl>,
#> #   stringency_legacy_disp <dbl>, confirmed <int>, deaths <int>
…
Important to note here that the output is a tibble of just the policy actions and three additional columns have been added to the dataset - date_value, country_code, and country_name - to identify the data as coming from a specific date and for a specific country.

To retrieve policy actions data for multiple countries on multiple days, the get_data_actions functions can be used as shown below:

get_json_actions(ccode = c("AFG", "Philippines"), 
                 from = "2020-10-25", 
                 to = "2020-10-31") %>% 
  get_data_actions()

This results in:

#> # A tibble: 252 x 12
#>    date_value country_code country_name policy_type_code policy_type_dis…
#>    <date>     <chr>        <chr>        <chr>            <chr>           
#>  1 2020-10-25 AFG          Afghanistan  C1               School closing  
#>  2 2020-10-25 AFG          Afghanistan  C2               Workplace closi…
#>  3 2020-10-25 AFG          Afghanistan  C3               Cancel public e…
#>  4 2020-10-25 AFG          Afghanistan  C4               Restrictions on…
#>  5 2020-10-25 AFG          Afghanistan  C5               Close public tr…
#>  6 2020-10-25 AFG          Afghanistan  C6               Stay at home re…
#>  7 2020-10-25 AFG          Afghanistan  C7               Restrictions on…
#>  8 2020-10-25 AFG          Afghanistan  C8               International t…
#>  9 2020-10-25 AFG          Afghanistan  E1               Income support  
#> 10 2020-10-25 AFG          Afghanistan  E2               Debt/contract r…
#> # … with 242 more rows, and 7 more variables: policyvalue <int>,
#> #   policyvalue_actual <int>, flagged <lgl>, is_general <lgl>, notes <chr>,
#> #   flag_value_display_field <chr>, policy_value_display_field <chr>
…
