Get time series stringency index data from JSON — get_data_time • oxcgrt
…
      json
      A JSON string, URL or file created using get_json_time()

    Value

    A tibble of time series stringency index data

    Examples

x <- get_json_time(from = "2020-07-18", to = "2020-07-25")

get_data_time(x)

#> # A tibble: 1,472 x 8
#>    date_value country_code confirmed deaths stringency_actu… stringency
#>    <date>     <chr>            <int>  <int>            <dbl>      <dbl>
#>  1 2020-07-18 ABW                108      3             32.4       32.4
#>  2 2020-07-18 AFG              35289   1147             78.7       78.7
#>  3 2020-07-18 AGO                638     29             76.4       76.4
#>  4 2020-07-18 ALB               3906    107             59.3       59.3
#>  5 2020-07-18 AND                880     52             41.7       41.7
#>  6 2020-07-18 ARE              56422    337             43.5       43.5
#>  7 2020-07-18 ARG             114770   2133             92.6       92.6
#>  8 2020-07-18 AUS              11235    116             68.1       68.1
#>  9 2020-07-18 AUT              19406    710             35.2       35.2
#> 10 2020-07-18 AZE              26636    341             96.3       96.3
#> # … with 1,462 more rows, and 2 more variables: stringency_legacy <dbl>,
#> #   stringency_legacy_disp <dbl>
…
